<svg id="danger" xmlns="http://www.w3.org/2000/svg" width="19.954" height="19.954" viewBox="0 0 19.954 19.954">
  <path id="Vector" d="M0,0V4.157" transform="translate(9.977 7.483)" fill="none" stroke="#ea0449" stroke-linecap="round" stroke-linejoin="round" stroke-width="1.2"/>
  <path id="Vector-2" data-name="Vector" d="M8.314,15.645H3.275c-2.885,0-4.091-2.062-2.694-4.581L3.176,6.392,5.62,2C7.1-.667,9.528-.667,11.008,2l2.444,4.4,2.594,4.673c1.4,2.519.183,4.581-2.694,4.581H8.314Z" transform="translate(1.663 2.155)" fill="none" stroke="#ea0449" stroke-linecap="round" stroke-linejoin="round" stroke-width="1.2"/>
  <path id="Vector-3" data-name="Vector" d="M0,0H.007" transform="translate(9.972 14.134)" fill="none" stroke="#ea0449" stroke-linecap="round" stroke-linejoin="round" stroke-width="1.2"/>
  <path id="Vector-4" data-name="Vector" d="M0,0H19.954V19.954H0Z" fill="none" opacity="0"/>
</svg>
