<svg xmlns="http://www.w3.org/2000/svg" width="15.56" height="15.56" viewBox="0 0 15.56 15.56">
  <path id="Path_67484" data-name="Path 67484" d="M13.67,147.111H5.89v-.556a.556.556,0,0,0-1.111,0v.556H3.667A1.668,1.668,0,0,0,2,148.779v11.115a1.668,1.668,0,0,0,1.667,1.667H15.893a1.668,1.668,0,0,0,1.667-1.667V148.779a1.668,1.668,0,0,0-1.667-1.667H14.782v-.556a.556.556,0,0,0-1.111,0ZM3.111,151.557v8.336a.556.556,0,0,0,.556.556H15.893a.556.556,0,0,0,.556-.556v-8.336Zm11.67-3.334v.556a.556.556,0,1,1-1.111,0v-.556H5.89v.556a.556.556,0,1,1-1.111,0v-.556H3.667a.556.556,0,0,0-.556.556v1.667H16.449v-1.667a.556.556,0,0,0-.556-.556Z" transform="translate(-2 -146)" fill="#b9b9b9" fill-rule="evenodd"/>
</svg>
